[api-updater (non-obsolete-error-filter)] 25/05/2021 13:53:48 : Starting C:/Program Files/Unity/Hub/Editor/2020.3.8f1/Editor/Data/Tools/ScriptUpdater/APIUpdater.NonObsoleteApiUpdaterDetector.exe
[api-updater (non-obsolete-error-filter)] 
----------------------------------
jit/startup time      : 1397,2732ms
moved types parse time: 79ms
candidates parse time : 10ms
C# parse time         : 865ms
candidates check time : 50ms
console write time    : 0ms

[api-updater (non-obsolete-error-filter)] 25/05/2021 14:14:51 : Starting C:/Program Files/Unity/Hub/Editor/2020.3.8f1/Editor/Data/Tools/ScriptUpdater/APIUpdater.NonObsoleteApiUpdaterDetector.exe
[api-updater (non-obsolete-error-filter)] 
----------------------------------
jit/startup time      : 80,9994ms
moved types parse time: 58ms
candidates parse time : 1ms
C# parse time         : 219ms
candidates check time : 35ms
console write time    : 0ms

[api-updater (non-obsolete-error-filter)] 26/05/2021 14:26:23 : Starting C:/Program Files/Unity/Hub/Editor/2020.3.8f1/Editor/Data/Tools/ScriptUpdater/APIUpdater.NonObsoleteApiUpdaterDetector.exe
[api-updater (non-obsolete-error-filter)] 
----------------------------------
jit/startup time      : 573,3665ms
moved types parse time: 48ms
candidates parse time : 0ms
C# parse time         : 249ms
candidates check time : 26ms
console write time    : 1ms

[api-updater (non-obsolete-error-filter)] 27/05/2021 23:23:32 : Starting C:/Program Files/Unity/Hub/Editor/2020.3.8f1/Editor/Data/Tools/ScriptUpdater/APIUpdater.NonObsoleteApiUpdaterDetector.exe
[api-updater (non-obsolete-error-filter)] 
----------------------------------
jit/startup time      : 549,3833ms
moved types parse time: 48ms
candidates parse time : 1ms
C# parse time         : 198ms
candidates check time : 32ms
console write time    : 0ms

[api-updater (non-obsolete-error-filter)] 27/05/2021 23:23:45 : Starting C:/Program Files/Unity/Hub/Editor/2020.3.8f1/Editor/Data/Tools/ScriptUpdater/APIUpdater.NonObsoleteApiUpdaterDetector.exe
[api-updater (non-obsolete-error-filter)] 
----------------------------------
jit/startup time      : 49,998ms
moved types parse time: 41ms
candidates parse time : 1ms
C# parse time         : 144ms
candidates check time : 22ms
console write time    : 0ms

[api-updater (non-obsolete-error-filter)] 07/06/2021 09:16:41 : Starting C:/Program Files/Unity/Hub/Editor/2020.3.8f1/Editor/Data/Tools/ScriptUpdater/APIUpdater.NonObsoleteApiUpdaterDetector.exe
[api-updater (non-obsolete-error-filter)] 
----------------------------------
jit/startup time      : 772,3112ms
moved types parse time: 45ms
candidates parse time : 1ms
C# parse time         : 223ms
candidates check time : 28ms
console write time    : 1ms

[api-updater (non-obsolete-error-filter)] 07/06/2021 14:03:00 : Starting C:/Program Files/Unity/Hub/Editor/2020.3.8f1/Editor/Data/Tools/ScriptUpdater/APIUpdater.NonObsoleteApiUpdaterDetector.exe
[api-updater (non-obsolete-error-filter)] 
----------------------------------
jit/startup time      : 89,9735ms
moved types parse time: 44ms
candidates parse time : 0ms
C# parse time         : 151ms
candidates check time : 27ms
console write time    : 0ms

[api-updater (non-obsolete-error-filter)] 08/06/2021 09:45:58 : Starting C:/Program Files/Unity/Hub/Editor/2020.3.8f1/Editor/Data/Tools/ScriptUpdater/APIUpdater.NonObsoleteApiUpdaterDetector.exe
[api-updater (non-obsolete-error-filter)] 
----------------------------------
jit/startup time      : 627,7568ms
moved types parse time: 44ms
candidates parse time : 1ms
C# parse time         : 162ms
candidates check time : 32ms
console write time    : 0ms

[api-updater (non-obsolete-error-filter)] 22/06/2021 10:15:47 : Starting C:/Program Files/Unity/Hub/Editor/2020.3.8f1/Editor/Data/Tools/ScriptUpdater/APIUpdater.NonObsoleteApiUpdaterDetector.exe
[api-updater (non-obsolete-error-filter)] 
----------------------------------
jit/startup time      : 1963,6077ms
moved types parse time: 119ms
candidates parse time : 2ms
C# parse time         : 306ms
candidates check time : 42ms
console write time    : 1ms

[api-updater (non-obsolete-error-filter)] 22/06/2021 10:15:51 : Starting C:/Program Files/Unity/Hub/Editor/2020.3.8f1/Editor/Data/Tools/ScriptUpdater/APIUpdater.NonObsoleteApiUpdaterDetector.exe
[api-updater (non-obsolete-error-filter)] 
----------------------------------
jit/startup time      : 123,2523ms
moved types parse time: 87ms
candidates parse time : 1ms
C# parse time         : 276ms
candidates check time : 34ms
console write time    : 0ms

