%YAML 1.1
%TAG !u! tag:unity3d.com,2011:
--- !u!1001 &9171406592748613628
PrefabInstance:
  m_ObjectHideFlags: 0
  serializedVersion: 2
  m_Modification:
    m_TransformParent: {fileID: 0}
    m_Modifications:
    - target: {fileID: 696923985232372858, guid: 8cc9d50e48c00fc44bb935f3019c98df, type: 3}
      propertyPath: Hp
      value: 10
      objectReference: {fileID: 0}
    - target: {fileID: 696923985232372858, guid: 8cc9d50e48c00fc44bb935f3019c98df, type: 3}
      propertyPath: Name
      value: Fire
      objectReference: {fileID: 0}
    - target: {fileID: 696923985232372858, guid: 8cc9d50e48c00fc44bb935f3019c98df, type: 3}
      propertyPath: Model
      value: 
      objectReference: {fileID: 1090219386143568, guid: a817c29ea6847604bb2c6c51d9a74bf1, type: 3}
    - target: {fileID: 696923985232372858, guid: 8cc9d50e48c00fc44bb935f3019c98df, type: 3}
      propertyPath: Speed
      value: 50
      objectReference: {fileID: 0}
    - target: {fileID: 696923985232372858, guid: 8cc9d50e48c00fc44bb935f3019c98df, type: 3}
      propertyPath: Attack
      value: 5
      objectReference: {fileID: 0}
    - target: {fileID: 696923985232372858, guid: 8cc9d50e48c00fc44bb935f3019c98df, type: 3}
      propertyPath: Element
      value: fire
      objectReference: {fileID: 0}
    - target: {fileID: 2657609775104761378, guid: 8cc9d50e48c00fc44bb935f3019c98df, type: 3}
      propertyPath: m_Pivot.x
      value: 0.5
      objectReference: {fileID: 0}
    - target: {fileID: 2657609775104761378, guid: 8cc9d50e48c00fc44bb935f3019c98df, type: 3}
      propertyPath: m_Pivot.y
      value: 0.5
      objectReference: {fileID: 0}
    - target: {fileID: 2657609775104761378, guid: 8cc9d50e48c00fc44bb935f3019c98df, type: 3}
      propertyPath: m_RootOrder
      value: 0
      objectReference: {fileID: 0}
    - target: {fileID: 2657609775104761378, guid: 8cc9d50e48c00fc44bb935f3019c98df, type: 3}
      propertyPath: m_AnchorMax.x
      value: 0.5
      objectReference: {fileID: 0}
    - target: {fileID: 2657609775104761378, guid: 8cc9d50e48c00fc44bb935f3019c98df, type: 3}
      propertyPath: m_AnchorMax.y
      value: 0.5
      objectReference: {fileID: 0}
    - target: {fileID: 2657609775104761378, guid: 8cc9d50e48c00fc44bb935f3019c98df, type: 3}
      propertyPath: m_AnchorMin.x
      value: 0.5
      objectReference: {fileID: 0}
    - target: {fileID: 2657609775104761378, guid: 8cc9d50e48c00fc44bb935f3019c98df, type: 3}
      propertyPath: m_AnchorMin.y
      value: 0.5
      objectReference: {fileID: 0}
    - target: {fileID: 2657609775104761378, guid: 8cc9d50e48c00fc44bb935f3019c98df, type: 3}
      propertyPath: m_SizeDelta.x
      value: 243.8233
      objectReference: {fileID: 0}
    - target: {fileID: 2657609775104761378, guid: 8cc9d50e48c00fc44bb935f3019c98df, type: 3}
      propertyPath: m_SizeDelta.y
      value: 390.604
      objectReference: {fileID: 0}
    - target: {fileID: 2657609775104761378, guid: 8cc9d50e48c00fc44bb935f3019c98df, type: 3}
      propertyPath: m_LocalPosition.x
      value: 0
      objectReference: {fileID: 0}
    - target: {fileID: 2657609775104761378, guid: 8cc9d50e48c00fc44bb935f3019c98df, type: 3}
      propertyPath: m_LocalPosition.y
      value: 0
      objectReference: {fileID: 0}
    - target: {fileID: 2657609775104761378, guid: 8cc9d50e48c00fc44bb935f3019c98df, type: 3}
      propertyPath: m_LocalPosition.z
      value: 0
      objectReference: {fileID: 0}
    - target: {fileID: 2657609775104761378, guid: 8cc9d50e48c00fc44bb935f3019c98df, type: 3}
      propertyPath: m_LocalRotation.w
      value: 1
      objectReference: {fileID: 0}
    - target: {fileID: 2657609775104761378, guid: 8cc9d50e48c00fc44bb935f3019c98df, type: 3}
      propertyPath: m_LocalRotation.x
      value: -0
      objectReference: {fileID: 0}
    - target: {fileID: 2657609775104761378, guid: 8cc9d50e48c00fc44bb935f3019c98df, type: 3}
      propertyPath: m_LocalRotation.y
      value: -0
      objectReference: {fileID: 0}
    - target: {fileID: 2657609775104761378, guid: 8cc9d50e48c00fc44bb935f3019c98df, type: 3}
      propertyPath: m_LocalRotation.z
      value: -0
      objectReference: {fileID: 0}
    - target: {fileID: 2657609775104761378, guid: 8cc9d50e48c00fc44bb935f3019c98df, type: 3}
      propertyPath: m_AnchoredPosition.x
      value: -637
      objectReference: {fileID: 0}
    - target: {fileID: 2657609775104761378, guid: 8cc9d50e48c00fc44bb935f3019c98df, type: 3}
      propertyPath: m_AnchoredPosition.y
      value: -204
      objectReference: {fileID: 0}
    - target: {fileID: 2657609775104761378, guid: 8cc9d50e48c00fc44bb935f3019c98df, type: 3}
      propertyPath: m_LocalEulerAnglesHint.x
      value: 0
      objectReference: {fileID: 0}
    - target: {fileID: 2657609775104761378, guid: 8cc9d50e48c00fc44bb935f3019c98df, type: 3}
      propertyPath: m_LocalEulerAnglesHint.y
      value: 0
      objectReference: {fileID: 0}
    - target: {fileID: 2657609775104761378, guid: 8cc9d50e48c00fc44bb935f3019c98df, type: 3}
      propertyPath: m_LocalEulerAnglesHint.z
      value: 0
      objectReference: {fileID: 0}
    - target: {fileID: 2657609775104761389, guid: 8cc9d50e48c00fc44bb935f3019c98df, type: 3}
      propertyPath: m_Name
      value: Fire
      objectReference: {fileID: 0}
    - target: {fileID: 2657609775286076202, guid: 8cc9d50e48c00fc44bb935f3019c98df, type: 3}
      propertyPath: m_Text
      value: 5
      objectReference: {fileID: 0}
    - target: {fileID: 2657609775286076202, guid: 8cc9d50e48c00fc44bb935f3019c98df, type: 3}
      propertyPath: m_FontData.m_Alignment
      value: 4
      objectReference: {fileID: 0}
    - target: {fileID: 2657609775450698804, guid: 8cc9d50e48c00fc44bb935f3019c98df, type: 3}
      propertyPath: m_AnchorMax.y
      value: 0
      objectReference: {fileID: 0}
    - target: {fileID: 2657609775840708085, guid: 8cc9d50e48c00fc44bb935f3019c98df, type: 3}
      propertyPath: m_AnchorMax.y
      value: 0
      objectReference: {fileID: 0}
    - target: {fileID: 2657609775885869082, guid: 8cc9d50e48c00fc44bb935f3019c98df, type: 3}
      propertyPath: m_Text
      value: Character 1
      objectReference: {fileID: 0}
    - target: {fileID: 2657609775916113055, guid: 8cc9d50e48c00fc44bb935f3019c98df, type: 3}
      propertyPath: m_Color.b
      value: 0
      objectReference: {fileID: 0}
    - target: {fileID: 2657609775916113055, guid: 8cc9d50e48c00fc44bb935f3019c98df, type: 3}
      propertyPath: m_Color.g
      value: 0.05450766
      objectReference: {fileID: 0}
    - target: {fileID: 2657609775916113055, guid: 8cc9d50e48c00fc44bb935f3019c98df, type: 3}
      propertyPath: m_Color.r
      value: 1
      objectReference: {fileID: 0}
    - target: {fileID: 2657609775976838053, guid: 8cc9d50e48c00fc44bb935f3019c98df, type: 3}
      propertyPath: m_FontData.m_Alignment
      value: 3
      objectReference: {fileID: 0}
    - target: {fileID: 2657609776490281611, guid: 8cc9d50e48c00fc44bb935f3019c98df, type: 3}
      propertyPath: m_Text
      value: 50
      objectReference: {fileID: 0}
    - target: {fileID: 2657609776490281611, guid: 8cc9d50e48c00fc44bb935f3019c98df, type: 3}
      propertyPath: m_FontData.m_Alignment
      value: 4
      objectReference: {fileID: 0}
    - target: {fileID: 8677573689866616489, guid: 8cc9d50e48c00fc44bb935f3019c98df, type: 3}
      propertyPath: m_EdgeRadius
      value: 0
      objectReference: {fileID: 0}
    m_RemovedComponents: []
  m_SourcePrefab: {fileID: 100100000, guid: 8cc9d50e48c00fc44bb935f3019c98df, type: 3}
